目前OE系统已经由虚拟机切换到了正式的服务器上，相关地址如下：
    8069正式应用服务器：外网访问地址113.108.103.238：8069 内网地址192.168.5.18：8069
                               主机名 oe-app SSH访问地址外网113.108.103.238 端口3214 内网地址192.168.5.18 22
                               用户名：lxyraul
      8069正式数据库服务器： 主机名 oe-data SSH访问地址外网113.108.103.238 端口3215 内网地址192.168.5.17 22
                               用户名：lxyraul
      8070测试服务器：外网访问地址113.108.103.238：8070 内网地址192.168.1.88：8069
                                主机名 oe-test SSH访问地址外网113.108.103.238 端口12345 内网地址192.168.5.22 22
                               用户名：lxyraul
      8060开发服务器：外网访问地址113.108.103.238：8060 内网地址192.168.5.21：8069
                                主机名 oe-dev SSH访问地址外网113.108.103.238 端口2222 内网地址192.168.5.21 22
                               用户名：lxyraul/szwgmf
     8050旧正式服务器：外网访问地址113.108.103.238：8050 内网地址192.168.1.100：8069
                                主机名 openerpserver SSH访问地址外网113.108.103.238 端口2223 内网地址192.168.1.100 22
                               用户名：dongzhi
                               
                               
                     mstsc          113.108.103.238:6229 szwgmf.com